<?xml version="1.0" encoding="utf-8"?>
<!-- Generator: Adobe Illustrator 21.0.2, SVG Export Plug-In . SVG Version: 6.00 Build 0)  -->
<svg version="1.1" id="Layer_1" xmlns="http://www.w3.org/2000/svg" xmlns:xlink="http://www.w3.org/1999/xlink" x="0px" y="0px"
	 viewBox="0 0 307.2 73.6" style="enable-background:new 0 0 307.2 73.6;" xml:space="preserve">
<style type="text/css">
	.st0{fill:#0068AD;}
	.st1{opacity:7.000000e-02;fill:#FFFFFF;}
	.st2{opacity:0.29;fill:#020404;}
	.st3{fill:#FFFFFF;}
</style>
<g>
	<path class="st0" d="M52.2,0.9c-18.8,3.6-36,8.7-50.6,15.7c-0.6,0.3-1,0.9-1,1.6V21v3.1v2.8v0.9v2.8v3.1v2.8v2.2v5.9v3.7v5.9
		c0,3.5,1.8,6.6,4.8,8.4l17,9.8c3,1.7,6.7,1.7,9.7,0l17-9.8c3-1.7,4.8-4.9,4.8-8.4v-9.6v-1.8l0,0v-9.6V25v-2.8v-6.8v-2.8v-1.4v-9
		C53.9,1.4,53.1,0.8,52.2,0.9z"/>
	<path class="st1" d="M52.2,0.9c-8.7,1.7-17,3.7-24.9,6v66.6c1.7,0,3.3-0.4,4.8-1.3l17-9.8c3-1.7,4.8-4.9,4.8-8.4v-9.6v-1.8l0,0
		v-9.6V25v-2.8v-6.8v-2.8v-1.4v-9C53.9,1.4,53.1,0.8,52.2,0.9z"/>
	<path class="st2" d="M42.5,11.2c-13.1,1.7-25.2,4.9-35.3,9.3c-0.4,0.2-0.7,0.6-0.7,1.1v2v2.2v2v2.4c0-0.1,0-0.2,0.1-0.2
		c10.5-4.6,23.1-8,37-9.7l0.1,0v-0.1v-7.9C43.7,11.7,43.1,11.2,42.5,11.2z"/>
	<path class="st2" d="M29.4,26.8c-8.1,1.6-15.6,3.7-22.2,6.5c-0.4,0.2-0.7,0.6-0.7,1.1v2v2.2v2V43c0-0.1,0-0.2,0.1-0.2
		c6.8-2.8,14.5-5.1,22.8-6.7V26.8z"/>
	<path class="st3" d="M43.9,8.7c-13.6,2.6-26.1,6.7-36.7,11.8c-0.4,0.2-0.7,0.7-0.7,1.1v2v2.2v2v2.4c0-0.1,0-0.2,0.1-0.2
		c10.9-5.4,24.1-9.7,38.4-12.3l0.1,0v-0.1V9.7C45.1,9,44.6,8.5,43.9,8.7z"/>
	<path class="st3" d="M31,24.5c-8.6,2.4-16.7,5.4-23.8,8.8c-0.4,0.2-0.7,0.7-0.7,1.1v2v2.2v2v2.4c0-0.1,0-0.2,0.1-0.2
		c7.2-3.5,15.5-6.6,24.4-9.1V24.5z"/>
	<path class="st2" d="M15.5,43.8c-2.9,0.6-5.7,1.4-8.4,2.2c-0.4,0.1-0.6,0.5-0.6,1v2v2.2v2v2.4c0-0.1,0-0.2,0.1-0.2
		c2.8-0.9,5.8-1.7,8.9-2.4V43.8z"/>
	<path class="st3" d="M16.9,41.7c-3.4,1.3-6.6,2.7-9.7,4.2c-0.4,0.2-0.7,0.7-0.7,1.1v2v2.2v2v2.4c0-0.1,0-0.2,0.1-0.2
		c3.2-1.6,6.7-3.1,10.3-4.5V41.7z"/>
</g>
<g>
	<path class="st3" d="M77.1,21.9c0.1-0.1,0.4-0.2,0.7-0.2h15.9c0.3,0,0.6,0.1,0.7,0.2c0.1,0.1,0.2,0.4,0.2,0.7v1.1
		c0,0.4-0.1,0.6-0.2,0.7c-0.1,0.1-0.4,0.2-0.7,0.2H80.2c-0.3,0-0.4,0.1-0.4,0.4v10.7c0,0.3,0.1,0.4,0.4,0.4h10.3
		c0.3,0,0.6,0.1,0.7,0.2c0.1,0.1,0.2,0.4,0.2,0.7v1c0,0.4-0.1,0.6-0.2,0.7c-0.1,0.1-0.4,0.2-0.7,0.2H80.2c-0.3,0-0.4,0.1-0.4,0.4
		v12.4c0,0.4-0.1,0.6-0.2,0.7c-0.1,0.1-0.4,0.2-0.7,0.2h-1.1c-0.3,0-0.6-0.1-0.7-0.2c-0.1-0.1-0.2-0.4-0.2-0.7V22.6
		C76.9,22.3,76.9,22.1,77.1,21.9z"/>
	<path class="st3" d="M100.7,21.9c0.1-0.1,0.4-0.2,0.7-0.2h1.1c0.3,0,0.6,0.1,0.7,0.2c0.1,0.1,0.2,0.4,0.2,0.7v29.2
		c0,0.4-0.1,0.6-0.2,0.7c-0.1,0.1-0.4,0.2-0.7,0.2h-1.1c-0.3,0-0.6-0.1-0.7-0.2c-0.1-0.1-0.2-0.4-0.2-0.7V22.6
		C100.5,22.3,100.6,22.1,100.7,21.9z"/>
	<path class="st3" d="M111.9,21.9c0.1-0.1,0.4-0.2,0.7-0.2h1.1c0.3,0,0.6,0.1,0.7,0.2c0.1,0.1,0.2,0.4,0.2,0.7v26.8
		c0,0.3,0.1,0.4,0.4,0.4h13.9c0.3,0,0.6,0.1,0.7,0.2c0.1,0.1,0.2,0.4,0.2,0.7v1.1c0,0.4-0.1,0.6-0.2,0.7c-0.1,0.1-0.4,0.2-0.7,0.2
		h-16.3c-0.3,0-0.6-0.1-0.7-0.2c-0.1-0.1-0.2-0.4-0.2-0.7V22.6C111.7,22.3,111.7,22.1,111.9,21.9z"/>
	<path class="st3" d="M135.9,21.9c0.1-0.1,0.4-0.2,0.7-0.2h15.8c0.3,0,0.6,0.1,0.7,0.2c0.1,0.1,0.2,0.4,0.2,0.7v1.1
		c0,0.4-0.1,0.6-0.2,0.7c-0.1,0.1-0.4,0.2-0.7,0.2H139c-0.3,0-0.4,0.1-0.4,0.4v10.3c0,0.3,0.1,0.4,0.4,0.4h9.3
		c0.3,0,0.6,0.1,0.7,0.2s0.2,0.4,0.2,0.7v1c0,0.4-0.1,0.6-0.2,0.7c-0.1,0.1-0.4,0.2-0.7,0.2H139c-0.3,0-0.4,0.1-0.4,0.4v10.5
		c0,0.3,0.1,0.4,0.4,0.4h13.4c0.3,0,0.6,0.1,0.7,0.2c0.1,0.1,0.2,0.4,0.2,0.7v1.1c0,0.4-0.1,0.6-0.2,0.7c-0.1,0.1-0.4,0.2-0.7,0.2
		h-15.9c-0.3,0-0.6-0.1-0.7-0.2c-0.1-0.1-0.2-0.4-0.2-0.7V22.6C135.7,22.3,135.7,22.1,135.9,21.9z"/>
	<path class="st3" d="M185.7,48.2c0,0.1,0,0.2-0.1,0.4s-0.2,0.3-0.4,0.4c-1.6,1.3-3.3,2.4-5.3,3.1c-2,0.7-4,1.1-6.2,1.1
		c-2.9,0-5.5-0.7-7.9-2c-2.4-1.4-4.3-3.2-5.7-5.7c-1.4-2.4-2.1-5.1-2.1-8.1c0-3,0.7-5.8,2.1-8.2c1.4-2.4,3.3-4.4,5.7-5.8
		c2.4-1.4,5.2-2.1,8.2-2.1c2.1,0,4.1,0.4,6.1,1.1c1.9,0.7,3.6,1.7,5.2,3c0.3,0.2,0.4,0.4,0.4,0.7c0,0.2-0.1,0.4-0.3,0.7l-1.3,1.7
		c-0.2,0.3-0.5,0.5-0.7,0.5c-0.2,0-0.4-0.1-0.8-0.4c-1.3-1-2.6-1.7-4.1-2.3c-1.5-0.6-3-0.8-4.6-0.8c-2.1,0-4,0.5-5.7,1.5
		c-1.7,1-3.1,2.4-4.1,4.2c-1,1.8-1.5,3.8-1.5,6.1c0,2.2,0.5,4.2,1.5,6c1,1.8,2.3,3.2,4.1,4.2c1.7,1,3.6,1.5,5.8,1.5
		c3.3,0,6.3-1.1,8.9-3.2c0.3-0.3,0.6-0.4,0.8-0.4c0.1,0,0.2,0,0.4,0.1c0.1,0.1,0.2,0.2,0.3,0.3l1.3,1.8
		C185.6,47.8,185.7,48,185.7,48.2z"/>
	<path class="st3" d="M191.1,22c0.1-0.1,0.4-0.2,0.8-0.2h2.5c0.4,0,0.6,0.1,0.8,0.2c0.1,0.1,0.2,0.4,0.2,0.8V48c0,0.2,0,0.3,0.1,0.4
		c0.1,0.1,0.2,0.1,0.4,0.1h13c0.4,0,0.6,0.1,0.8,0.2c0.1,0.1,0.2,0.4,0.2,0.8v2.3c0,0.4-0.1,0.6-0.2,0.8c-0.1,0.1-0.4,0.2-0.8,0.2
		h-17c-0.4,0-0.6-0.1-0.8-0.2c-0.1-0.1-0.2-0.4-0.2-0.8v-29C190.8,22.3,190.9,22.1,191.1,22z"/>
	<path class="st3" d="M213.6,29.2c1.4-2.5,3.3-4.4,5.7-5.8c2.4-1.4,5.2-2.1,8.2-2.1c3,0,5.7,0.7,8.1,2.1c2.4,1.4,4.3,3.3,5.7,5.7
		c1.4,2.4,2.1,5.1,2.1,8.1c0,3-0.7,5.7-2.1,8.2c-1.4,2.4-3.3,4.4-5.8,5.7c-2.4,1.4-5.2,2.1-8.2,2.1c-3,0-5.7-0.7-8.1-2.1
		c-2.4-1.4-4.3-3.3-5.7-5.7c-1.4-2.4-2.1-5.1-2.1-8.1C211.5,34.4,212.2,31.6,213.6,29.2z M233.2,47.5c1.8-1,3.1-2.4,4.2-4.2
		c1-1.8,1.5-3.8,1.5-6c0-2.3-0.5-4.3-1.5-6.1c-1-1.8-2.4-3.2-4.1-4.2c-1.7-1-3.7-1.5-5.7-1.5c-2.1,0-4,0.5-5.8,1.5
		c-1.7,1-3.1,2.4-4.1,4.2c-1,1.8-1.5,3.8-1.5,6.1c0,2.2,0.5,4.2,1.5,6c1,1.8,2.3,3.2,4.1,4.2c1.7,1,3.6,1.5,5.7,1.5
		S231.4,48.5,233.2,47.5z"/>
	<path class="st3" d="M249.4,22c0.1-0.1,0.4-0.2,0.8-0.2h2.4c0.4,0,0.6,0.1,0.8,0.2c0.1,0.1,0.2,0.4,0.2,0.8v16.7
		c0,3,0.7,5.4,2.1,7.1c1.4,1.7,3.4,2.5,6.1,2.5c1.8,0,3.3-0.4,4.5-1.1c1.3-0.8,2.2-1.9,2.9-3.3c0.7-1.4,1-3.1,1-5.1V22.7
		c0-0.4,0.1-0.6,0.2-0.8c0.1-0.1,0.4-0.2,0.7-0.2h2.5c0.4,0,0.6,0.1,0.8,0.2c0.1,0.1,0.2,0.4,0.2,0.8v16.8c0,3-0.6,5.5-1.7,7.5
		c-1.1,2-2.6,3.6-4.6,4.6c-2,1-4.2,1.5-6.7,1.5c-2.4,0-4.6-0.5-6.5-1.5c-1.9-1-3.3-2.5-4.4-4.5c-1.1-2-1.6-4.6-1.6-7.6V22.7
		C249.2,22.3,249.3,22.1,249.4,22z"/>
	<path class="st3" d="M305.2,28.9c-1.3-2.3-3.3-4-5.8-5.3c-2.5-1.3-5.5-1.9-8.9-1.9h-9.2c-0.4,0-0.6,0.1-0.8,0.2
		c-0.1,0.1-0.2,0.4-0.2,0.8v0.4v0.9v1c0,0.4,0.1,0.6,0.2,0.8c0.1,0.1,0.4,0.2,0.8,0.2h0.9v0h6.6v0h1.3c2.6,0,4.8,0.5,6.7,1.4
		c1.9,0.9,3.3,2.2,4.3,3.9c1,1.7,1.5,3.6,1.5,5.8c0,2.4-0.5,4.4-1.5,6.1c-1,1.7-2.4,3-4.3,4c-1.9,0.9-4.2,1.4-6.8,1.4h-4.7
		c0,0,0,0,0,0H282v0h-0.7c-0.4,0-0.6,0.1-0.8,0.2c-0.1,0.1-0.2,0.4-0.2,0.8v1.2v0.7v0.4c0,0.4,0.1,0.6,0.2,0.8
		c0.1,0.1,0.4,0.2,0.8,0.2h8.6c3.5,0,6.6-0.6,9.2-1.9c2.6-1.3,4.6-3.1,6-5.5c1.4-2.4,2.1-5.2,2.1-8.4
		C307.2,33.8,306.6,31.2,305.2,28.9z"/>
</g>
</svg>
