<?xml version="1.0" encoding="utf-8"?>
<!-- Generator: Adobe Illustrator 21.0.2, SVG Export Plug-In . SVG Version: 6.00 Build 0)  -->
<svg version="1.1" id="Layer_1" xmlns="http://www.w3.org/2000/svg" xmlns:xlink="http://www.w3.org/1999/xlink" x="0px" y="0px"
	 viewBox="0 0 47.7 66.3" style="enable-background:new 0 0 47.7 66.3;" xml:space="preserve">
<style type="text/css">
	.st0{fill:#FFFFFF;}
	.st1{fill:#010101;}
</style>
<g>
	<rect x="1.5" y="5.6" class="st0" width="45.1" height="59.5"/>
	<path class="st1" d="M46.6,65.8H1.5c-0.4,0-0.7-0.3-0.7-0.7V5.6c0-0.4,0.3-0.7,0.7-0.7h45.1c0.4,0,0.7,0.3,0.7,0.7v59.5
		C47.3,65.5,47,65.8,46.6,65.8z M2.2,64.3h43.6v-58H2.2V64.3z"/>
</g>
<g>
	<g>
		<path class="st1" d="M33.4,6.2c0-1.4-1.1-2.5-2.5-2.5h-1.5c-1.3,0-2.3-0.7-2.9-1.8c-0.5-1-1.5-1.7-2.7-1.7s-2.2,0.7-2.7,1.7
			c-0.5,1.1-1.6,1.8-2.9,1.8h-1.7c-1.4,0-2.5,1.1-2.5,2.5v2h19.2L33.4,6.2L33.4,6.2z M23.9,3.1c-0.6,0-1.1-0.5-1.1-1.1
			s0.5-1.1,1.1-1.1S25,1.4,25,2S24.5,3.1,23.9,3.1z"/>
	</g>
	<g>
		<polygon class="st1" points="32.8,63 44.2,51.7 32.8,51.7 		"/>
	</g>
	<g>
		<path class="st1" d="M7.9,22.7C7.9,22.7,7.9,22.7,7.9,22.7c0.2,0,0.3-0.1,0.4-0.2l2.8-2.9c0.2-0.2,0.2-0.5,0-0.7
			c-0.2-0.2-0.5-0.2-0.7,0l-2.4,2.5l-0.6-0.7c-0.2-0.2-0.5-0.2-0.7-0.1c-0.2,0.2-0.2,0.5-0.1,0.7l1,1.2C7.6,22.6,7.7,22.7,7.9,22.7z
			"/>
	</g>
	<g>
		<polygon class="st1" points="10.5,29.7 8.7,31.4 7,29.7 6.3,30.4 8.1,32.1 6.2,33.9 6.9,34.6 8.7,32.8 10.5,34.6 11.2,33.9 
			9.4,32.1 11.2,30.4 		"/>
	</g>
	<g>
		<polygon class="st1" points="10.5,40.9 8.7,42.6 7,40.9 6.3,41.6 8.1,43.3 6.2,45.1 6.9,45.8 8.7,44 10.5,45.8 11.2,45.1 
			9.4,43.3 11.2,41.6 		"/>
	</g>
	<g>
		<path class="st1" d="M46,5H35.1v1.8h10.5v44.8h0L32.8,64.5l0,0h-0.5l0,0l0,0H2.1V6.9h10.5V5H1.8C0.8,5,0,5.8,0,6.8v57.7
			c0,1,0.8,1.8,1.8,1.8H46c1,0,1.8-0.8,1.8-1.8V6.8C47.7,5.8,46.9,5,46,5z"/>
	</g>
</g>
<g>
	<path class="st1" d="M38.5,20.4H14.4c-0.4,0-0.7-0.3-0.7-0.7s0.3-0.7,0.7-0.7h24.1c0.4,0,0.7,0.3,0.7,0.7S38.9,20.4,38.5,20.4z"/>
</g>
<g>
	<path class="st1" d="M28.4,23.9h-14c-0.4,0-0.7-0.3-0.7-0.7c0-0.4,0.3-0.7,0.7-0.7h14c0.4,0,0.7,0.3,0.7,0.7
		C29.2,23.5,28.8,23.9,28.4,23.9z"/>
</g>
<g>
	<path class="st1" d="M38.5,30.9H14.4c-0.4,0-0.7-0.3-0.7-0.7c0-0.4,0.3-0.7,0.7-0.7h24.1c0.4,0,0.7,0.3,0.7,0.7
		C39.3,30.5,38.9,30.9,38.5,30.9z"/>
</g>
<g>
	<path class="st1" d="M28.4,34.4h-14c-0.4,0-0.7-0.3-0.7-0.7c0-0.4,0.3-0.7,0.7-0.7h14c0.4,0,0.7,0.3,0.7,0.7
		C29.2,34,28.8,34.4,28.4,34.4z"/>
</g>
<g>
	<path class="st1" d="M38.5,42.3H14.4c-0.4,0-0.7-0.3-0.7-0.7c0-0.4,0.3-0.7,0.7-0.7h24.1c0.4,0,0.7,0.3,0.7,0.7
		C39.3,42,38.9,42.3,38.5,42.3z"/>
</g>
<g>
	<path class="st1" d="M28.4,45.8h-14c-0.4,0-0.7-0.3-0.7-0.7s0.3-0.7,0.7-0.7h14c0.4,0,0.7,0.3,0.7,0.7S28.8,45.8,28.4,45.8z"/>
</g>
</svg>
